0.2301596997,346.29289230000001
0.23708539370000001,327.35739030000002
0.31132924899999997,395.77748409999998
0.22785916710000001,374.27891090000003
0.35487417199999999,414.49024109999999
0.32902775719999999,353.11846600000001
0.38151268859999998,431.87793149999999
0.34205640189999997,372.71194259999999
0.52944488960000002,863.0141079
0.31077553349999998,451.98571509999999
0.2653362823,360.0978197
0.23058035669999999,385.98820940000002
0.273529627,405.84584050000001
0.25476093480000001,442.51763549999998
0.46006431640000001,562.8644233
0.32208676920000001,339.45973450000002
0.2302912748,290.57686280000001
0.34673449210000001,654.54049220000002
0.25913258900000002,363.84964689999998
0.26554942669999998,449.26863659999998
0.35998682770000001,469.05343379999999
0.19673730389999999,314.1123647
0.4262872446,645.67940369999997
0.2543755177,344.15809619999999
0.38372877760000002,409.07070449999998
0.2385571101,392.41501599999998
0.26091341750000002,483.12094020000001
0.32093042309999997,466.79983729999998
0.31318416430000001,395.8084523
0.1995575352,249.47097489999999
0.23042474530000001,382.42879540000001
0.39009010890000001,573.89335140000003
0.49979328239999998,695.88855260000003
0.18490076010000001,284.37437920000002
0.18529142239999999,327.5065626
0.1704236814,270.0160697
0.28003118310000003,315.69445469999999
0.21249512740000001,286.493426
0.32998865040000003,546.04779550000001
0.26983154669999998,282.04465240000002
0.4404674012,457.0571463
0.23965861890000001,397.2482493
0.23694350359999999,378.33635340000001
0.34795232980000002,609.35922140000002
0.42327899569999999,487.87183440000001
0.49184574079999999,610.09199790000002
0.58222060860000002,817.43690649999996
0.163066567,256.00414009999997
0.35754611310000001,560.69533899999999
0.37326844640000001,430.9167223
0.18467796980000001,284.12751600000001
0.33979203530000002,478.77879410000003
0.26578239190000003,324.93157839999998
0.35501218179999999,437.69811470000002
0.39762989399999998,565.25314479999997
0.28315714539999998,351.99920350000002
0.35842713570000001,666.45839290000004
0.35013166060000001,450.03464000000002
0.30017240470000001,367.33057509999998
0.42960174210000002,651.87788350000005
0.47733353270000001,722.87676420000003
0.50197793359999998,572.10076890000005
0.28671869080000001,379.26563970000001
0.3375962206,357.85520960000002
0.26838918890000002,338.89478359999998
0.42766777210000001,662.03796060000002
0.37676314350000001,557.4865939
0.2548264556,337.29200859999997
0.2705171569,557.69732820000002
0.38201615189999999,836.72139790000006
0.28540219420000001,453.24016840000002
0.37602377920000002,604.02129560000003
0.19866950410000001,231.84380429999999
0.38215892099999998,358.30208240000002
0.46017563849999998,790.82552559999999
0.1884440151,309.77761809999998
0.4346108487,538.24605029999998
0.2393601527,347.6458404
0.20329953880000001,349.11651890000002
0.34241859629999999,459.4088524
0.34732933459999998,369.8949513
0.30368195450000002,421.35866449999997
0.33662067359999998,469.6818189
0.3375881147,713.87046129999999
0.43795622569999998,459.31877279999998
0.16537723030000001,248.56198910000001
0.1711526434,299.00669319999997
0.39024734709999997,448.25490109999998
0.29114973189999999,372.3643189
0.31502830710000002,431.21525689999999
0.33496832599999998,415.72218529999998
0.39411682980000001,497.75505340000001
0.2972098601,368.35799980000002
0.44831954239999999,798.93713749999995
0.41589868720000001,424.23684709999998
0.46439066699999998,486.65979490000001
0.49029639889999999,570.86611200000004
0.19580583630000001,340.83569069999999
0.32401914609999999,463.9711762
0.1941556482,307.59050130000003
0.17531669590000001,277.92431490000001
0.28431861980000001,524.17342759999997
0.40096336110000003,529.5335384
0.32742810389999999,544.70795959999998
0.3663468634,533.57007929999997
0.30513333860000003,373.03667589999998
0.48450311000000001,520.33752349999997
0.73442741199999995,818.5121249
0.42705296580000002,429.07974539999998
0.22264196880000001,329.35108819999999
0.32039532170000001,492.26706359999997
0.32186444380000001,512.24370569999996
0.25193696469999999,321.49319559999998
0.45566907369999998,590.51872849999995
0.31462633559999997,358.43355659999997
0.30403291589999998,384.7399901
0.26386374899999998,306.73636060000001
0.24667394640000001,319.97801850000002
0.30409128530000001,349.19021770000001
0.47775842439999999,922.63472709999996
0.29583518339999998,462.09214259999999
0.3746488724,400.97642459999997
0.25296606399999999,424.22486609999999
0.52083651019999999,537.63806260000001
0.27929940609999998,338.92548520000003
0.24328252249999999,469.9646085
0.21709533010000001,366.31818079999999
0.36234631109999998,519.95418900000004
0.28369991529999999,373.69581790000001
0.2269240029,308.63332489999999
0.23080849710000001,361.27602230000002
0.37128539690000001,791.42368850000003
0.30816550500000001,455.1601718
0.40999602769999999,626.8984183
0.19767808540000001,301.64075689999999
0.18333724379999999,315.1967009
0.32177319360000001,755.63371610000002
0.17570130449999999,298.14371979999999
0.35606922270000002,419.60751169999998
0.28664007229999999,338.21117900000002
0.30360339209999998,471.29311890000002
0.1914869901,293.53485499999999
0.27570160780000003,380.35006970000001
0.21309243250000001,337.30669829999999
0.21752650940000001,405.09323990000001
0.52020873270000001,625.73979780000002
0.35488538619999999,427.74759540000002
0.29278861160000003,347.1890654
0.37511401370000003,384.75151590000002
0.56386912889999996,701.61481960000003
0.77514935190000001,831.11010039999996
0.57300834700000003,967.0702546
0.2390003097,339.84100410000002
0.40480726789999999,541.84431219999999
0.20822804080000001,309.01151979999997
0.30222774930000001,493.35495150000003
0.21331992590000001,311.51327550000002
0.28637920080000001,332.28776440000001
0.36044014689999998,370.47773119999999
0.42405194460000001,595.35933420000003
0.37506219099999999,631.32711719999998
0.31745492559999999,679.88107909999997
0.25541838709999998,463.09847639999998
0.52517018090000001,575.59846760000005
0.32549618969999999,440.72137240000001
0.37880014360000003,773.35324449999996
0.31421585530000001,555.43817349999995
0.37357969330000002,451.0217644
0.1989626075,336.2760394
0.19697567990000001,328.52208109999998
0.2153437832,308.43868049999998
0.27117887439999999,384.36379929999998
0.27760512079999999,436.5061642
0.4516336567,607.39897710000002
0.42963142199999999,675.33993190000001
0.17565008830000001,293.31335369999999
0.30224367800000002,354.50495949999998
0.20330416339999999,339.51883179999999
0.294579284,345.5083884
0.2775575032,362.47730560000002
0.42405894729999999,496.72067470000002
0.24611761800000001,416.09682020000002
0.2081366663,358.49502740000003
0.59944370979999995,730.92787599999997
0.34579833310000002,384.43073729999998
0.35072186100000002,449.61541440000002
0.47156062209999999,508.9214346
0.30988586159999998,369.55902329999998
0.49457973979999997,746.32397979999996
0.51851774490000002,707.40791379999996
0.29344913700000003,538.25175879999995
0.5036469643,584.98584659999995
0.2624357249,413.97394750000001
0.55629481729999997,591.08985170000005
