0.1,0.8
0.35789,0.8
0.61579,0.8
0.87368,0.8
1.1316,0.8
1.3895,0.8
1.6474,0.8
1.9053,0.8
2.1632,0.8
2.4211,0.8
2.6789,0.8
2.9368,0.8
3.1947,0.8
3.4526,0.8
3.7105,0.8
3.9684,0.8
4.2263,0.8
4.4842,0.8
4.7421,0.8
5,0.8
0.1,0.82105
0.35789,0.82105
0.61579,0.82105
0.87368,0.82105
1.1316,0.82105
1.3895,0.82105
1.6474,0.82105
1.9053,0.82105
2.1632,0.82105
2.4211,0.82105
2.6789,0.82105
2.9368,0.82105
3.1947,0.82105
3.4526,0.82105
3.7105,0.82105
3.9684,0.82105
4.2263,0.82105
4.4842,0.82105
4.7421,0.82105
5,0.82105
0.1,0.84211
0.35789,0.84211
0.61579,0.84211
0.87368,0.84211
1.1316,0.84211
1.3895,0.84211
1.6474,0.84211
1.9053,0.84211
2.1632,0.84211
2.4211,0.84211
2.6789,0.84211
2.9368,0.84211
3.1947,0.84211
3.4526,0.84211
3.7105,0.84211
3.9684,0.84211
4.2263,0.84211
4.4842,0.84211
4.7421,0.84211
5,0.84211
0.1,0.86316
0.35789,0.86316
0.61579,0.86316
0.87368,0.86316
1.1316,0.86316
1.3895,0.86316
1.6474,0.86316
1.9053,0.86316
2.1632,0.86316
2.4211,0.86316
2.6789,0.86316
2.9368,0.86316
3.1947,0.86316
3.4526,0.86316
3.7105,0.86316
3.9684,0.86316
4.2263,0.86316
4.4842,0.86316
4.7421,0.86316
5,0.86316
0.1,0.88421
0.35789,0.88421
0.61579,0.88421
0.87368,0.88421
1.1316,0.88421
1.3895,0.88421
1.6474,0.88421
1.9053,0.88421
2.1632,0.88421
2.4211,0.88421
2.6789,0.88421
2.9368,0.88421
3.1947,0.88421
3.4526,0.88421
3.7105,0.88421
3.9684,0.88421
4.2263,0.88421
4.4842,0.88421
4.7421,0.88421
5,0.88421
0.1,0.90526
0.35789,0.90526
0.61579,0.90526
0.87368,0.90526
1.1316,0.90526
1.3895,0.90526
1.6474,0.90526
1.9053,0.90526
2.1632,0.90526
2.4211,0.90526
2.6789,0.90526
2.9368,0.90526
3.1947,0.90526
3.4526,0.90526
3.7105,0.90526
3.9684,0.90526
4.2263,0.90526
4.4842,0.90526
4.7421,0.90526
5,0.90526
0.1,0.92632
0.35789,0.92632
0.61579,0.92632
0.87368,0.92632
1.1316,0.92632
1.3895,0.92632
1.6474,0.92632
1.9053,0.92632
2.1632,0.92632
2.4211,0.92632
2.6789,0.92632
2.9368,0.92632
3.1947,0.92632
3.4526,0.92632
3.7105,0.92632
3.9684,0.92632
4.2263,0.92632
4.4842,0.92632
4.7421,0.92632
5,0.92632
0.1,0.94737
0.35789,0.94737
0.61579,0.94737
0.87368,0.94737
1.1316,0.94737
1.3895,0.94737
1.6474,0.94737
1.9053,0.94737
2.1632,0.94737
2.4211,0.94737
2.6789,0.94737
2.9368,0.94737
3.1947,0.94737
3.4526,0.94737
3.7105,0.94737
3.9684,0.94737
4.2263,0.94737
4.4842,0.94737
4.7421,0.94737
5,0.94737
0.1,0.96842
0.35789,0.96842
0.61579,0.96842
0.87368,0.96842
1.1316,0.96842
1.3895,0.96842
1.6474,0.96842
1.9053,0.96842
2.1632,0.96842
2.4211,0.96842
2.6789,0.96842
2.9368,0.96842
3.1947,0.96842
3.4526,0.96842
3.7105,0.96842
3.9684,0.96842
4.2263,0.96842
4.4842,0.96842
4.7421,0.96842
5,0.96842
0.1,0.98947
0.35789,0.98947
0.61579,0.98947
0.87368,0.98947
1.1316,0.98947
1.3895,0.98947
1.6474,0.98947
1.9053,0.98947
2.1632,0.98947
2.4211,0.98947
2.6789,0.98947
2.9368,0.98947
3.1947,0.98947
3.4526,0.98947
3.7105,0.98947
3.9684,0.98947
4.2263,0.98947
4.4842,0.98947
4.7421,0.98947
5,0.98947
0.1,1.0105
0.35789,1.0105
0.61579,1.0105
0.87368,1.0105
1.1316,1.0105
1.3895,1.0105
1.6474,1.0105
1.9053,1.0105
2.1632,1.0105
2.4211,1.0105
2.6789,1.0105
2.9368,1.0105
3.1947,1.0105
3.4526,1.0105
3.7105,1.0105
3.9684,1.0105
4.2263,1.0105
4.4842,1.0105
4.7421,1.0105
5,1.0105
0.1,1.0316
0.35789,1.0316
0.61579,1.0316
0.87368,1.0316
1.1316,1.0316
1.3895,1.0316
1.6474,1.0316
1.9053,1.0316
2.1632,1.0316
2.4211,1.0316
2.6789,1.0316
2.9368,1.0316
3.1947,1.0316
3.4526,1.0316
3.7105,1.0316
3.9684,1.0316
4.2263,1.0316
4.4842,1.0316
4.7421,1.0316
5,1.0316
0.1,1.0526
0.35789,1.0526
0.61579,1.0526
0.87368,1.0526
1.1316,1.0526
1.3895,1.0526
1.6474,1.0526
1.9053,1.0526
2.1632,1.0526
2.4211,1.0526
2.6789,1.0526
2.9368,1.0526
3.1947,1.0526
3.4526,1.0526
3.7105,1.0526
3.9684,1.0526
4.2263,1.0526
4.4842,1.0526
4.7421,1.0526
5,1.0526
0.1,1.0737
0.35789,1.0737
0.61579,1.0737
0.87368,1.0737
1.1316,1.0737
1.3895,1.0737
1.6474,1.0737
1.9053,1.0737
2.1632,1.0737
2.4211,1.0737
2.6789,1.0737
2.9368,1.0737
3.1947,1.0737
3.4526,1.0737
3.7105,1.0737
3.9684,1.0737
4.2263,1.0737
4.4842,1.0737
4.7421,1.0737
5,1.0737
0.1,1.0947
0.35789,1.0947
0.61579,1.0947
0.87368,1.0947
1.1316,1.0947
1.3895,1.0947
1.6474,1.0947
1.9053,1.0947
2.1632,1.0947
2.4211,1.0947
2.6789,1.0947
2.9368,1.0947
3.1947,1.0947
3.4526,1.0947
3.7105,1.0947
3.9684,1.0947
4.2263,1.0947
4.4842,1.0947
4.7421,1.0947
5,1.0947
0.1,1.1158
0.35789,1.1158
0.61579,1.1158
0.87368,1.1158
1.1316,1.1158
1.3895,1.1158
1.6474,1.1158
1.9053,1.1158
2.1632,1.1158
2.4211,1.1158
2.6789,1.1158
2.9368,1.1158
3.1947,1.1158
3.4526,1.1158
3.7105,1.1158
3.9684,1.1158
4.2263,1.1158
4.4842,1.1158
4.7421,1.1158
5,1.1158
0.1,1.1368
0.35789,1.1368
0.61579,1.1368
0.87368,1.1368
1.1316,1.1368
1.3895,1.1368
1.6474,1.1368
1.9053,1.1368
2.1632,1.1368
2.4211,1.1368
2.6789,1.1368
2.9368,1.1368
3.1947,1.1368
3.4526,1.1368
3.7105,1.1368
3.9684,1.1368
4.2263,1.1368
4.4842,1.1368
4.7421,1.1368
5,1.1368
0.1,1.1579
0.35789,1.1579
0.61579,1.1579
0.87368,1.1579
1.1316,1.1579
1.3895,1.1579
1.6474,1.1579
1.9053,1.1579
2.1632,1.1579
2.4211,1.1579
2.6789,1.1579
2.9368,1.1579
3.1947,1.1579
3.4526,1.1579
3.7105,1.1579
3.9684,1.1579
4.2263,1.1579
4.4842,1.1579
4.7421,1.1579
5,1.1579
0.1,1.1789
0.35789,1.1789
0.61579,1.1789
0.87368,1.1789
1.1316,1.1789
1.3895,1.1789
1.6474,1.1789
1.9053,1.1789
2.1632,1.1789
2.4211,1.1789
2.6789,1.1789
2.9368,1.1789
3.1947,1.1789
3.4526,1.1789
3.7105,1.1789
3.9684,1.1789
4.2263,1.1789
4.4842,1.1789
4.7421,1.1789
5,1.1789
0.1,1.2
0.35789,1.2
0.61579,1.2
0.87368,1.2
1.1316,1.2
1.3895,1.2
1.6474,1.2
1.9053,1.2
2.1632,1.2
2.4211,1.2
2.6789,1.2
2.9368,1.2
3.1947,1.2
3.4526,1.2
3.7105,1.2
3.9684,1.2
4.2263,1.2
4.4842,1.2
4.7421,1.2
5,1.2
